module gitlab.com/dovgopoly/market-contract

go 1.18

require (
	github.com/ethereum/go-ethereum v1.10.17
	github.com/kr/pretty v0.2.1
	github.com/pkg/errors v0.9.1
	github.com/spf13/viper v1.11.0
)

require (
	github.com/StackExchange/wmi v0.0.0-20180116203802-5d049714c4a6 // indirect
	github.com/btcsuite/btcd/btcec/v2 v2.2.0 // indirect
	github.com/deckarep/golang-set v1.8.0 // indirect
	github.com/decred/dcrd/dcrec/secp256k1/v4 v4.0.1 // indirect
	github.com/fsnotify/fsnotify v1.5.1 // indirect
	github.com/go-ole/go-ole v1.2.1 // indirect
	github.com/go-stack/stack v1.8.0 // indirect
	github.com/google/uuid v1.2.0 // indirect
	github.com/gorilla/websocket v1.4.2 // indirect
	github.com/hashicorp/hcl v1.0.0 // indirect
	github.com/kr/text v0.2.0 // indirect
	github.com/magiconair/properties v1.8.6 // indirect
	github.com/mitchellh/mapstructure v1.4.3 // indirect
	github.com/pelletier/go-toml v1.9.4 // indirect
	github.com/pelletier/go-toml/v2 v2.0.0-beta.8 // indirect
	github.com/rjeczalik/notify v0.9.1 // indirect
	github.com/shirou/gopsutil v3.21.4-0.20210419000835-c7a38de76ee5+incompatible // indirect
	github.com/spf13/afero v1.8.2 // indirect
	github.com/spf13/cast v1.4.1 // indirect
	github.com/spf13/jwalterweatherman v1.1.0 // indirect
	github.com/spf13/pflag v1.0.5 // indirect
	github.com/subosito/gotenv v1.2.0 // indirect
	github.com/tklauser/go-sysconf v0.3.5 // indirect
	github.com/tklauser/numcpus v0.2.2 // indirect
	golang.org/x/crypto v0.0.0-20220427172511-eb4f295cb31f // indirect
	golang.org/x/sys v0.0.0-20220503163025-988cb79eb6c6 // indirect
	golang.org/x/text v0.3.7 // indirect
	gopkg.in/ini.v1 v1.66.4 // indirect
	gopkg.in/natefinch/npipe.v2 v2.0.0-20160621034901-c1b8fa8bdcce // indirect
	gopkg.in/yaml.v2 v2.4.0 // indirect
	gopkg.in/yaml.v3 v3.0.0-20210107192922-496545a6307b // indirect
)
